sim/tests/basic/streamwave.vcd
$date
	Sun Mar  8 04:11:29 2026
$end
$version
	Icarus Verilog
$end
$timescale
	1ps
$end
$scope module userlogic_test $end
$var wire 32 ! ul_instr_addr [31:0] $end
$var wire 32 " ul_test [31:0] $end
$var wire 4 # ul_write_en [3:0] $end
$var wire 32 $ ul_write_data [31:0] $end
$var wire 64 % ul_write_addr [63:0] $end
$var wire 32 & ul_status [31:0] $end
$var wire 32 ' ul_read_data [31:0] $end
$var wire 64 ( ul_read_addr [63:0] $end
$var wire 32 ) ul_instr [31:0] $end
$var wire 64 * intermediate_read_data [63:0] $end
$var wire 32 + data_out [31:0] $end
$var parameter 32 , ADDR_WIDTH $end
$var parameter 32 - AXIS_DWIDTH $end
$var parameter 32 . BUF_SIZE $end
$var parameter 32 / NUM_READ_OUT_MUX_BITS $end
$var reg 1 0 clk $end
$var reg 32 1 cycle_count [32:1] $end
$var reg 8192 2 dump_vars_filename [8192:1] $end
$var reg 10 3 image_n_columns [9:0] $end
$var reg 10 4 image_n_rows [9:0] $end
$var reg 8192 5 input_buffer_filename [8192:1] $end
$var reg 8192 6 instr_mem_filename [8192:1] $end
$var reg 32 7 num_cycles [32:1] $end
$var reg 33 8 out_end_addr [32:0] $end
$var reg 33 9 out_start_addr [32:0] $end
$var reg 8192 : output_buffer_filename [8192:1] $end
$var reg 15 ; read_addr [14:0] $end
$var reg 1 < rst_n $end
$var reg 8192 = test_result_filename [8192:1] $end
$var reg 32 > ul_command [31:0] $end
$var integer 32 ? dump_vars [31:0] $end
$var integer 32 @ i [31:0] $end
$var integer 32 A outfile [31:0] $end
$var integer 32 B read_input_buffer [31:0] $end
$var integer 32 C read_instr_mem [31:0] $end
$var integer 32 D result [31:0] $end
$var integer 32 E write_output_buffer [31:0] $end
$var integer 32 F write_test_result [31:0] $end
$scope begin data_out_gen[0] $end
$var parameter 2 G k $end
$scope begin genblk1 $end
$upscope $end
$upscope $end
$scope begin data_out_gen[1] $end
$var parameter 2 H k $end
$scope begin genblk1 $end
$upscope $end
$upscope $end
$scope begin input_buffer_gen[0] $end
$var wire 15 I adjusted_ul_read_addr [14:0] $end
$var parameter 2 J k $end
$scope module input_buffer $end
$var wire 15 K addr [14:0] $end
$var wire 1 0 clk $end
$var wire 32 L din [31:0] $end
$var wire 1 M we $end
$var parameter 32 N AWIDTH $end
$var parameter 32 O DWIDTH $end
$var parameter 32 P SIZE $end
$var reg 32 Q dout [31:0] $end
$upscope $end
$upscope $end
$scope begin input_buffer_gen[1] $end
$var wire 15 R adjusted_ul_read_addr [14:0] $end
$var parameter 2 S k $end
$scope module input_buffer $end
$var wire 15 T addr [14:0] $end
$var wire 1 0 clk $end
$var wire 32 U din [31:0] $end
$var wire 1 V we $end
$var parameter 32 W AWIDTH $end
$var parameter 32 X DWIDTH $end
$var parameter 32 Y SIZE $end
$var reg 32 Z dout [31:0] $end
$upscope $end
$upscope $end
$scope begin output_buffer_gen[0] $end
$var parameter 2 [ k $end
$scope begin genblk1 $end
$upscope $end
$scope module output_buffer $end
$var wire 15 \ addr [14:0] $end
$var wire 1 0 clk $end
$var wire 16 ] din [15:0] $end
$var wire 2 ^ we [1:0] $end
$var parameter 32 _ ADDR_WIDTH $end
$var parameter 32 ` COL_WIDTH $end
$var parameter 64 a DATA_WIDTH $end
$var parameter 32 b N_COLS $end
$var parameter 47 c RAM_DEPTH $end
$var reg 16 d dout [15:0] $end
$scope begin column[0] $end
$var parameter 2 e c $end
$upscope $end
$scope begin column[1] $end
$var parameter 2 f c $end
$upscope $end
$upscope $end
$upscope $end
$scope begin output_buffer_gen[1] $end
$var parameter 2 g k $end
$scope begin genblk1 $end
$upscope $end
$scope module output_buffer $end
$var wire 15 h addr [14:0] $end
$var wire 1 0 clk $end
$var wire 16 i din [15:0] $end
$var wire 2 j we [1:0] $end
$var parameter 32 k ADDR_WIDTH $end
$var parameter 32 l COL_WIDTH $end
$var parameter 64 m DATA_WIDTH $end
$var parameter 32 n N_COLS $end
$var parameter 47 o RAM_DEPTH $end
$var reg 16 p dout [15:0] $end
$scope begin column[0] $end
$var parameter 2 q c $end
$upscope $end
$scope begin column[1] $end
$var parameter 2 r c $end
$upscope $end
$upscope $end
$upscope $end
$scope module instr_mem $end
$var wire 16 s addr [15:0] $end
$var wire 1 0 clk $end
$var wire 32 t din [31:0] $end
$var wire 1 u we $end
$var parameter 32 v AWIDTH $end
$var parameter 32 w DWIDTH $end
$var parameter 32 x SIZE $end
$var reg 32 y dout [31:0] $end
$upscope $end
$scope module ul $end
$var wire 1 0 clk $end
$var wire 32 z command [31:0] $end
$var wire 32 { instr [31:0] $end
$var wire 32 | instr_addr [31:0] $end
$var wire 32 } read_data [31:0] $end
$var wire 1 < rst_n $end
$var wire 1 ~ sobel_reset $end
$var wire 32 !" test [31:0] $end
$var wire 4 "" write_en [3:0] $end
$var wire 32 #" write_data [31:0] $end
$var wire 64 $" write_addr [63:0] $end
$var wire 32 %" status [31:0] $end
$var wire 10 &" sobel_image_n_rows [9:0] $end
$var wire 10 '" sobel_image_n_cols [9:0] $end
$var wire 1 (" sobel_go $end
$var wire 64 )" read_addr [63:0] $end
$var parameter 32 *" ADDR_WIDTH $end
$var parameter 32 +" AXIS_DWIDTH $end
$var parameter 32 ," BUF_SIZE $end
$scope module go_r $end
$var wire 1 0 clk $end
$var wire 1 -" d $end
$var wire 1 ~ r $end
$var parameter 32 ." WIDTH $end
$var reg 1 (" q $end
$upscope $end
$scope module sobel $end
$var wire 1 0 clk $end
$var wire 1 (" go $end
$var wire 32 /" mem2stop_read_data [31:0] $end
$var wire 10 0" pipe2stop_image_n_cols [9:0] $end
$var wire 10 1" pipe2stop_image_n_rows [9:0] $end
$var wire 1 ~ reset $end
$var wire 32 2" stop2pipe_status [31:0] $end
$var wire 4 3" stop2mem_write_en [3:0] $end
$var wire 32 4" stop2mem_write_data [31:0] $end
$var wire 64 5" stop2mem_write_addr [63:0] $end
$var wire 64 6" stop2mem_read_addr [63:0] $end
$var wire 32 7" srt2srow_read_data [31:0] $end
$var wire 32 8" srow2sacc_row3_data [31:0] $end
$var wire 32 9" srow2sacc_row2_data [31:0] $end
$var wire 32 :" srow2sacc_row1_data [31:0] $end
$var wire 2 ;" sctl2swt_write_en [1:0] $end
$var wire 32 <" sctl2swt_write_addr [31:0] $end
$var wire 32 =" sctl2srt_read_addr [31:0] $end
$var wire 2 >" sctl2srow_row_op [1:0] $end
$var wire 16 ?" sacc2swt_write_data [15:0] $end
$var parameter 32 @" IMAGE_DIM_WIDTH $end
$var parameter 32 A" IOBUF_ADDR_WIDTH $end
$var parameter 32 B" STATUS_REG_WIDTH $end
$scope module accelerator $end
$var wire 32 C" row1 [31:0] $end
$var wire 32 D" row2 [31:0] $end
$var wire 32 E" row3 [31:0] $end
$var wire 32 F" srow2sacc_row3_data [31:0] $end
$var wire 32 G" srow2sacc_row2_data [31:0] $end
$var wire 32 H" srow2sacc_row1_data [31:0] $end
$var wire 16 I" sacc2swt_write_data [15:0] $end
$var reg 16 J" sobel_out [15:0] $end
$scope begin convolve[0] $end
$var parameter 2 K" c $end
$upscope $end
$scope begin convolve[1] $end
$var parameter 2 L" c $end
$upscope $end
$upscope $end
$scope module control $end
$var wire 1 0 clk $end
$var wire 1 (" go $end
$var wire 1 ~ reset $end
$var wire 2 M" sctl2srow_row_op [1:0] $end
$var wire 32 N" sctl2srt_read_addr [31:0] $end
$var wire 32 O" sctl2swt_write_addr [31:0] $end
$var wire 10 P" stop2sctl_image_n_cols [9:0] $end
$var wire 10 Q" stop2sctl_image_n_rows [9:0] $end
$var wire 4 R" state [3:0] $end
$var wire 2 S" sctl2swt_write_en [1:0] $end
$var wire 32 T" sctl2stop_status [31:0] $end
$var wire 10 U" row_counter [9:0] $end
$var wire 2 V" pixel_write_en [1:0] $end
$var wire 10 W" next_col_strip [9:0] $end
$var wire 10 X" max_col_strip [9:0] $end
$var wire 10 Y" control_n_rows [9:0] $end
$var wire 10 Z" control_n_cols [9:0] $end
$var wire 10 [" col_strip [9:0] $end
$var wire 10 \" buf_write_row_incr [9:0] $end
$var wire 32 ]" buf_write_offset [31:0] $end
$var wire 32 ^" buf_read_offset [31:0] $end
$var parameter 32 _" IMAGE_DIM_WIDTH $end
$var parameter 32 `" IOBUF_ADDR_WIDTH $end
$var parameter 32 a" STATE_ERROR $end
$var parameter 32 b" STATE_LOADING_1 $end
$var parameter 32 c" STATE_LOADING_2 $end
$var parameter 32 d" STATE_LOADING_3 $end
$var parameter 32 e" STATE_PROCESSING_CALC $end
$var parameter 32 f" STATE_PROCESSING_CALC_LAST $end
$var parameter 32 g" STATE_PROCESSING_DONE $end
$var parameter 32 h" STATE_PROCESSING_LOADSS $end
$var parameter 32 i" STATE_PROCESSING_LOADSS_LAST $end
$var parameter 32 j" STATE_WAIT $end
$var parameter 32 k" STATE_WIDTH $end
$var parameter 32 l" STATUS_REG_WIDTH $end
$var reg 32 m" buf_read_offset_next [31:0] $end
$var reg 1 n" buf_write_en $end
$var reg 32 o" buf_write_offset_next [31:0] $end
$var reg 10 p" col_strip_next [9:0] $end
$var reg 10 q" row_counter_next [9:0] $end
$var reg 2 r" row_op [1:0] $end
$var reg 4 s" state_next [3:0] $end
$scope begin sobel_write_en[0] $end
$var parameter 2 t" i $end
$upscope $end
$scope begin sobel_write_en[1] $end
$var parameter 2 u" i $end
$upscope $end
$scope module buf_read_offset_r $end
$var wire 1 0 clk $end
$var wire 32 v" d [31:0] $end
$var wire 1 (" en $end
$var wire 1 ~ r $end
$var parameter 32 w" WIDTH $end
$var reg 32 x" q [31:0] $end
$upscope $end
$scope module buf_write_offset_r $end
$var wire 1 0 clk $end
$var wire 32 y" d [31:0] $end
$var wire 1 (" en $end
$var wire 1 ~ r $end
$var parameter 32 z" WIDTH $end
$var reg 32 {" q [31:0] $end
$upscope $end
$scope module col_strip_r $end
$var wire 1 0 clk $end
$var wire 10 |" d [9:0] $end
$var wire 1 (" en $end
$var wire 1 ~ r $end
$var parameter 32 }" WIDTH $end
$var reg 10 ~" q [9:0] $end
$upscope $end
$scope module control_n_cols_r $end
$var wire 1 0 clk $end
$var wire 10 !# d [9:0] $end
$var wire 1 "# en $end
$var wire 1 ~ r $end
$var parameter 32 ## WIDTH $end
$var reg 10 $# q [9:0] $end
$upscope $end
$scope module control_n_rows_r $end
$var wire 1 0 clk $end
$var wire 10 %# d [9:0] $end
$var wire 1 &# en $end
$var wire 1 ~ r $end
$var parameter 32 '# WIDTH $end
$var reg 10 (# q [9:0] $end
$upscope $end
$scope module row_counter_r $end
$var wire 1 0 clk $end
$var wire 10 )# d [9:0] $end
$var wire 1 (" en $end
$var wire 1 ~ r $end
$var parameter 32 *# WIDTH $end
$var reg 10 +# q [9:0] $end
$upscope $end
$scope module state_r $end
$var wire 1 0 clk $end
$var wire 4 ,# d [3:0] $end
$var wire 1 ~ r $end
$var parameter 32 -# WIDTH $end
$var reg 4 .# q [3:0] $end
$upscope $end
$upscope $end
$scope module read_transform $end
$var wire 1 0 clk $end
$var wire 32 /# mem2srt_read_data [31:0] $end
$var wire 1 ~ reset $end
$var wire 32 0# sctl2srt_read_addr [31:0] $end
$var wire 32 1# transformed_read_data [31:0] $end
$var wire 32 2# srt2srow_read_data [31:0] $end
$var wire 64 3# srt2mem_read_addr [63:0] $end
$var wire 1 4# read_transform $end
$var parameter 32 5# ADDR_WIDTH $end
$scope begin flip_endian_read_data[0] $end
$var parameter 2 6# i $end
$upscope $end
$scope begin flip_endian_read_data[1] $end
$var parameter 2 7# i $end
$upscope $end
$scope begin flip_endian_read_data[2] $end
$var parameter 3 8# i $end
$upscope $end
$scope begin flip_endian_read_data[3] $end
$var parameter 3 9# i $end
$upscope $end
$scope begin transform_read_address[0] $end
$var parameter 2 :# i $end
$upscope $end
$scope begin transform_read_address[1] $end
$var parameter 2 ;# i $end
$upscope $end
$scope begin unpack_read_data[0] $end
$var parameter 2 <# i $end
$upscope $end
$scope begin unpack_read_data[1] $end
$var parameter 2 =# i $end
$upscope $end
$scope module read_transform_r $end
$var wire 1 0 clk $end
$var wire 1 ># d $end
$var wire 1 ~ r $end
$var parameter 32 ?# WIDTH $end
$var reg 1 4# q $end
$upscope $end
$upscope $end
$scope module row_reg $end
$var wire 1 0 clk $end
$var wire 1 (" go $end
$var wire 1 ~ reset $end
$var wire 2 @# sctl2srow_row_op [1:0] $end
$var wire 32 A# srow2sacc_row1_data [31:0] $end
$var wire 32 B# srow2sacc_row2_data [31:0] $end
$var wire 32 C# srow2sacc_row3_data [31:0] $end
$var wire 32 D# srt2srow_read_data [31:0] $end
$var wire 32 E# row3 [31:0] $end
$var wire 32 F# row2 [31:0] $end
$var wire 32 G# row1 [31:0] $end
$var reg 32 H# row1_next [31:0] $end
$var reg 32 I# row2_next [31:0] $end
$var reg 32 J# row3_next [31:0] $end
$scope module row1_r $end
$var wire 1 0 clk $end
$var wire 32 K# d [31:0] $end
$var wire 1 (" en $end
$var wire 1 ~ r $end
$var parameter 65 L# WIDTH $end
$var reg 32 M# q [31:0] $end
$upscope $end
$scope module row2_r $end
$var wire 1 0 clk $end
$var wire 32 N# d [31:0] $end
$var wire 1 (" en $end
$var wire 1 ~ r $end
$var parameter 65 O# WIDTH $end
$var reg 32 P# q [31:0] $end
$upscope $end
$scope module row3_r $end
$var wire 1 0 clk $end
$var wire 32 Q# d [31:0] $end
$var wire 1 (" en $end
$var wire 1 ~ r $end
$var parameter 65 R# WIDTH $end
$var reg 32 S# q [31:0] $end
$upscope $end
$upscope $end
$scope module write_transform $end
$var wire 16 T# sacc2swt_write_data [15:0] $end
$var wire 32 U# sctl2swt_write_addr [31:0] $end
$var wire 2 V# sctl2swt_write_en [1:0] $end
$var wire 32 W# swt2mem_write_data [31:0] $end
$var wire 1 X# write_transform $end
$var wire 32 Y# transformed_write_data [31:0] $end
$var wire 4 Z# swt2mem_write_en [3:0] $end
$var wire 64 [# swt2mem_write_addr [63:0] $end
$var parameter 32 \# ADDR_WIDTH $end
$scope begin unpack_write_data[0] $end
$var parameter 2 ]# i $end
$upscope $end
$scope begin unpack_write_data[1] $end
$var parameter 2 ^# i $end
$upscope $end
$scope begin write_transform_address_output[0] $end
$var parameter 2 _# i $end
$upscope $end
$scope begin write_transform_address_output[1] $end
$var parameter 2 `# i $end
$upscope $end
$scope begin write_transform_en_output[0] $end
$var parameter 2 a# i $end
$upscope $end
$scope begin write_transform_en_output[1] $end
$var parameter 2 b# i $end
$upscope $end
$scope begin write_transform_en_output[2] $end
$var parameter 3 c# i $end
$upscope $end
$scope begin write_transform_en_output[3] $end
$var parameter 3 d# i $end
$upscope $end
$scope begin write_transform_internal[0] $end
$var parameter 2 e# i $end
$upscope $end
$scope begin write_transform_internal[1] $end
$var parameter 2 f# i $end
$upscope $end
$upscope $end
$upscope $end
$upscope $end
$upscope $end
$enddefinitions $end
$comment Show the parameter values. $end
$dumpall
b1 f#
b0 e#
b11 d#
b10 c#
b1 b#
b0 a#
b1 `#
b0 _#
b1 ^#
b0 ]#
b100000 \#
b100000 R#
b100000 O#
b100000 L#
b1 ?#
b1 =#
b0 <#
b1 ;#
b0 :#
b11 9#
b10 8#
b1 7#
b0 6#
b100000 5#
b100 -#
b1010 *#
b1010 '#
b1010 ##
b1010 }"
b100000 z"
b100000 w"
b1 u"
b0 t"
b100000 l"
b100 k"
b0 j"
b111 i"
b101 h"
b1000 g"
b110 f"
b100 e"
b11 d"
b10 c"
b1 b"
b1111 a"
b100000 `"
b1010 _"
b1 L"
b0 K"
b100000 B"
b100000 A"
b1010 @"
b1 ."
b1000000000000000 ,"
b100000 +"
b1111 *"
b10000000000000000 x
b100000 w
b10000 v
b1 r
b0 q
b1000000000000000 o
b10 n
b10000 m
b1000 l
b1111 k
b1 g
b1 f
b0 e
b1000000000000000 c
b10 b
b10000 a
b1000 `
b1111 _
b0 [
b1000000000000000 Y
b100000 X
b1111 W
b1 S
b1000000000000000 P
b100000 O
b1111 N
b0 J
b1 H
b0 G
b0 /
b1000000000000000 .
b100000 -
b1111 ,
$end
#0
$dumpvars
bx [#
bx Z#
bx Y#
xX#
bx W#
bx V#
bx U#
bx T#
bx S#
bx Q#
bx P#
bx N#
bx M#
bx K#
bx J#
bx I#
bx H#
bx G#
bx F#
bx E#
bx D#
bx C#
bx B#
bx A#
bx @#
x>#
x4#
bx 3#
bx 2#
bx 1#
bx 0#
bx /#
bx .#
bx ,#
bx +#
bx )#
bx (#
x&#
b10 %#
bx $#
x"#
b10 !#
bx ~"
bx |"
bx {"
bx y"
bx x"
bx v"
bx s"
bx r"
bx q"
bx p"
bx o"
xn"
bx m"
bx ^"
bx ]"
bx \"
bx ["
bx Z"
bx Y"
bx X"
bx W"
bx V"
bx U"
b0xxxxxx T"
bx S"
bx R"
b10 Q"
b10 P"
bx O"
bx N"
bx M"
bx J"
bx I"
bx H"
bx G"
bx F"
bx E"
bx D"
bx C"
bx ?"
bx >"
bx ="
bx <"
bx ;"
bx :"
bx 9"
bx 8"
bx 7"
bx 6"
bx 5"
bx 4"
bx 3"
b0xxxxxx 2"
b10 1"
b10 0"
bx /"
0-"
bx )"
x("
b10 '"
b10 &"
b0xxxxxx %"
bx $"
bx #"
bx ""
b0 !"
1~
bx }
b0 |
bx {
b0 z
bx y
0u
b0 t
b0 s
bx p
bx j
bx i
bx h
bx d
bx ^
bx ]
bx \
bx Z
0V
b0 U
bx T
bx R
bx Q
0M
b0 L
bx K
bx I
b0 F
b1 E
b1 D
b0 C
b1 B
bx A
bx @
b1 ?
b0 >
bx =
0<
b0 ;
b1110100011001010111001101110100011100110010111101100010011000010111001101101001011000110010111101101111011000100111010101100110010111110111010001100101011100110111010000101110011010000110010101111000 :
b0 9
b1000000000000000 8
b10011100010000 7
bx 6
b111010001100101011100110111010001110011001011110110001001100001011100110110100101100011001011110110100101100010011101010110011000101110011010000110010101111000 5
b1110 4
b1110 3
b111010001100101011100110111010001110011001011110110001001100001011100110110100101100011001011110111001101110100011100100110010101100001011011010111011101100001011101100110010100101110011101100110001101100100 2
b0 1
00
bx +
bx *
bx )
bx (
bx '
b0xxxxxx &
bx %
bx $
bx #
b0 "
b0 !
$end
#5000
b0 ]
b0 j
b0 \
b0 i
b0 h
b0 ^
b0 $
b0 #"
b0 4"
b0 W#
b0 Y#
b0 I
b0 K
b0 R
b0 T
b0 #
b0 ""
b0 3"
b0 Z#
b0 %
b0 $"
b0 5"
b0 [#
b0 ;"
b0 S"
b0 V#
b0 V"
b0 (
b0 )"
b0 6"
b0 3#
0n"
b1 >"
b1 M"
b1 @#
b1 r"
b0 q"
b0 )#
b0 s"
b0 ,#
b0 p"
b0 |"
b0 m"
b0 v"
0>#
b0 o"
b0 y"
0X#
b0 J#
b0 Q#
b0 I#
b0 N#
b0 H#
b0 K#
b0 ?"
b0 I"
b0 J"
b0 T#
0("
04#
1"#
1&#
b0 &
b0 %"
b0 2"
b0 T"
b0 R"
b0 .#
b0 Y"
b0 (#
b1111111100 X"
b1111111110 \"
b0 Z"
b0 $#
b0 U"
b0 +#
b10 W"
b0 ["
b0 ~"
b0 ="
b0 N"
b0 0#
b0 ^"
b0 x"
b0 <"
b0 O"
b0 U#
b0 ]"
b0 {"
b0 C"
b0 :"
b0 H"
b0 A#
b0 G#
b0 M#
b0 D"
b0 9"
b0 G"
b0 B#
b0 F#
b0 P#
b0 E"
b0 8"
b0 F"
b0 C#
b0 E#
b0 S#
10
#10000
00
#15000
b0 7"
b0 2#
b0 D#
b0 1#
b0 '
b0 }
b0 /"
b0 /#
b0 Z
b0 *
b0 Q
10
#20000
0~
00
1<
#25000
b10 Y"
b10 (#
b1111111110 X"
b0 \"
b10 Z"
b10 $#
10
#30000
b10000 &"
b10000 1"
b10000 Q"
b10000 %#
b10000 '"
b10000 0"
b10000 P"
b10000 !#
1-"
00
b10011100001111 1
b1110000000111001 >
b1110000000111001 z
#35000
b1 s"
b1 ,#
b1100 X"
b1110 \"
b10000 Z"
b10000 $#
b10000 Y"
b10000 (#
1("
10
#40000
00
b10011100001110 1
#45000
b10 s"
b10 ,#
b1 q"
b1 )#
b10000 m"
b10000 v"
b10 >"
b10 M"
b10 @#
b10 r"
0"#
0&#
b100 &
b100 %"
b100 2"
b100 T"
b1 R"
b1 .#
10
#50000
00
b10011100001101 1
#55000
b100 I
b100 K
b100 R
b100 T
b10000000000000000000000000000000100 (
b10000000000000000000000000000000100 )"
b10000000000000000000000000000000100 6"
b10000000000000000000000000000000100 3#
b11 s"
b11 ,#
b10 q"
b10 )#
b100000 m"
b100000 v"
b10 >"
b10 M"
b10 @#
b10 r"
b10000 ="
b10000 N"
b10000 0#
b10000 ^"
b10000 x"
b1 U"
b1 +#
b1000 &
b1000 %"
b1000 2"
b1000 T"
b10 R"
b10 .#
10
#60000
00
b10011100001100 1
#65000
b1000 I
b1000 K
b1000 R
b1000 T
b10 >"
b10 M"
b10 @#
b10 r"
b100 s"
b100 ,#
b100000000000000000000000000000001000 (
b100000000000000000000000000000001000 )"
b100000000000000000000000000000001000 6"
b100000000000000000000000000000001000 3#
b1100 &
b1100 %"
b1100 2"
b1100 T"
b11 R"
b11 .#
b10 U"
b10 +#
b100000 ="
b100000 N"
b100000 0#
b100000 ^"
b100000 x"
10
#70000
00
b10011100001011 1
#75000
b11 j
b1100 #
b1100 ""
b1100 3"
b1100 Z#
b11 ;"
b11 S"
b11 V#
b11 V"
b101 s"
b101 ,#
b110000 m"
b110000 v"
b1110 o"
b1110 y"
1n"
b1 >"
b1 M"
b1 @#
b1 r"
b10000 &
b10000 %"
b10000 2"
b10000 T"
b100 R"
b100 .#
10
#80000
00
b10011100001010 1
#85000
b0 \
b0 ^
b0 j
b0 ;"
b0 S"
b0 V#
b0 h
b0 #
b0 ""
b0 3"
b0 Z#
b1100 I
b1100 K
b1100 R
b1100 T
b0 V"
b100 s"
b100 ,#
b11 q"
b11 )#
b10 >"
b10 M"
b10 @#
b10 r"
0n"
b110000000000000000000000000000001100 (
b110000000000000000000000000000001100 )"
b110000000000000000000000000000001100 6"
b110000000000000000000000000000001100 3#
b10000000000000000000000000000000011 %
b10000000000000000000000000000000011 $"
b10000000000000000000000000000000011 5"
b10000000000000000000000000000000011 [#
1X#
b0xxxxxxxxxxxxxxxx +
b0 p
b10100 &
b10100 %"
b10100 2"
b10100 T"
b101 R"
b101 .#
b110000 ="
b110000 N"
b110000 0#
b110000 ^"
b110000 x"
b1110 <"
b1110 O"
b1110 U#
b1110 ]"
b1110 {"
10
#90000
00
b10011100001001 1
#95000
b11 \
b11 ^
b11 #
b11 ""
b11 3"
b11 Z#
b11 ;"
b11 S"
b11 V#
b11 V"
b101 s"
b101 ,#
b1000000 m"
b1000000 v"
b11100 o"
b11100 y"
1n"
b1 >"
b1 M"
b1 @#
b1 r"
b11 U"
b11 +#
b10000 &
b10000 %"
b10000 2"
b10000 T"
b100 R"
b100 .#
10
#100000
00
b10011100001000 1
#105000
b0 h
b0 ^
b0 j
b0 ;"
b0 S"
b0 V#
b0 \
b0 #
b0 ""
b0 3"
b0 Z#
b10000 I
b10000 K
b10000 R
b10000 T
b0 V"
b100 s"
b100 ,#
b100 q"
b100 )#
b10 >"
b10 M"
b10 @#
b10 r"
0n"
b1000000000000000000000000000000010000 (
b1000000000000000000000000000000010000 )"
b1000000000000000000000000000000010000 6"
b1000000000000000000000000000000010000 3#
b11100000000000000000000000000000111 %
b11100000000000000000000000000000111 $"
b11100000000000000000000000000000111 5"
b11100000000000000000000000000000111 [#
0X#
b0 +
b0 d
b10100 &
b10100 %"
b10100 2"
b10100 T"
b101 R"
b101 .#
b1000000 ="
b1000000 N"
b1000000 0#
b1000000 ^"
b1000000 x"
b11100 <"
b11100 O"
b11100 U#
b11100 ]"
b11100 {"
10
#110000
00
b10011100000111 1
#115000
b111 h
b11 j
b1100 #
b1100 ""
b1100 3"
b1100 Z#
b11 ;"
b11 S"
b11 V#
b11 V"
b101 s"
b101 ,#
b1010000 m"
b1010000 v"
b101010 o"
b101010 y"
1n"
b1 >"
b1 M"
b1 @#
b1 r"
b100 U"
b100 +#
b10000 &
b10000 %"
b10000 2"
b10000 T"
b100 R"
b100 .#
b0xxxxxxxxxxxxxxxx +
bx d
10
#120000
00
b10011100000110 1
#125000
b0 \
b0 ^
b0 j
b0 ;"
b0 S"
b0 V#
b0 h
b0 #
b0 ""
b0 3"
b0 Z#
b10100 I
b10100 K
b10100 R
b10100 T
b0 V"
b100 s"
b100 ,#
b101 q"
b101 )#
b10 >"
b10 M"
b10 @#
b10 r"
0n"
b1010000000000000000000000000000010100 (
b1010000000000000000000000000000010100 )"
b1010000000000000000000000000000010100 6"
b1010000000000000000000000000000010100 3#
b101100000000000000000000000000001010 %
b101100000000000000000000000000001010 $"
b101100000000000000000000000000001010 5"
b101100000000000000000000000000001010 [#
1X#
b10100 &
b10100 %"
b10100 2"
b10100 T"
b101 R"
b101 .#
b1010000 ="
b1010000 N"
b1010000 0#
b1010000 ^"
b1010000 x"
b101010 <"
b101010 O"
b101010 U#
b101010 ]"
b101010 {"
10
#130000
00
b10011100000101 1
#135000
b1010 \
b11 ^
b11 #
b11 ""
b11 3"
b11 Z#
b11 ;"
b11 S"
b11 V#
b11 V"
b101 s"
b101 ,#
b1100000 m"
b1100000 v"
b111000 o"
b111000 y"
1n"
b1 >"
b1 M"
b1 @#
b1 r"
b101 U"
b101 +#
b10000 &
b10000 %"
b10000 2"
b10000 T"
b100 R"
b100 .#
10
#140000
00
b10011100000100 1
#145000
b0 h
b0 ^
b0 j
b0 ;"
b0 S"
b0 V#
b0 \
b0 #
b0 ""
b0 3"
b0 Z#
b11000 I
b11000 K
b11000 R
b11000 T
b0 V"
b100 s"
b100 ,#
b110 q"
b110 )#
b10 >"
b10 M"
b10 @#
b10 r"
0n"
b1100000000000000000000000000000011000 (
b1100000000000000000000000000000011000 )"
b1100000000000000000000000000000011000 6"
b1100000000000000000000000000000011000 3#
b111000000000000000000000000000001110 %
b111000000000000000000000000000001110 $"
b111000000000000000000000000000001110 5"
b111000000000000000000000000000001110 [#
0X#
b0 +
b0 d
b10100 &
b10100 %"
b10100 2"
b10100 T"
b101 R"
b101 .#
b1100000 ="
b1100000 N"
b1100000 0#
b1100000 ^"
b1100000 x"
b111000 <"
b111000 O"
b111000 U#
b111000 ]"
b111000 {"
10
#150000
00
b10011100000011 1
#155000
b1110 h
b11 j
b1100 #
b1100 ""
b1100 3"
b1100 Z#
b11 ;"
b11 S"
b11 V#
b11 V"
b101 s"
b101 ,#
b1110000 m"
b1110000 v"
b1000110 o"
b1000110 y"
1n"
b1 >"
b1 M"
b1 @#
b1 r"
b110 U"
b110 +#
b10000 &
b10000 %"
b10000 2"
b10000 T"
b100 R"
b100 .#
b0xxxxxxxxxxxxxxxx +
bx d
10
#160000
00
b10011100000010 1
#165000
b0 \
b0 ^
b0 j
b0 ;"
b0 S"
b0 V#
b0 h
b0 #
b0 ""
b0 3"
b0 Z#
b11100 I
b11100 K
b11100 R
b11100 T
b0 V"
b100 s"
b100 ,#
b111 q"
b111 )#
b10 >"
b10 M"
b10 @#
b10 r"
0n"
b1110000000000000000000000000000011100 (
b1110000000000000000000000000000011100 )"
b1110000000000000000000000000000011100 6"
b1110000000000000000000000000000011100 3#
b1001000000000000000000000000000010001 %
b1001000000000000000000000000000010001 $"
b1001000000000000000000000000000010001 5"
b1001000000000000000000000000000010001 [#
1X#
b10100 &
b10100 %"
b10100 2"
b10100 T"
b101 R"
b101 .#
b1110000 ="
b1110000 N"
b1110000 0#
b1110000 ^"
b1110000 x"
b1000110 <"
b1000110 O"
b1000110 U#
b1000110 ]"
b1000110 {"
10
#170000
00
b10011100000001 1
#175000
b10001 \
b11 ^
b11 #
b11 ""
b11 3"
b11 Z#
b11 ;"
b11 S"
b11 V#
b11 V"
b101 s"
b101 ,#
b10000000 m"
b10000000 v"
b1010100 o"
b1010100 y"
1n"
b1 >"
b1 M"
b1 @#
b1 r"
b111 U"
b111 +#
b10000 &
b10000 %"
b10000 2"
b10000 T"
b100 R"
b100 .#
10
#180000
00
b10011100000000 1
#185000
b0 h
b0 ^
b0 j
b0 ;"
b0 S"
b0 V#
b0 \
b0 #
b0 ""
b0 3"
b0 Z#
b100000 I
b100000 K
b100000 R
b100000 T
b0 V"
b100 s"
b100 ,#
b1000 q"
b1000 )#
b10 >"
b10 M"
b10 @#
b10 r"
0n"
b10000000000000000000000000000000100000 (
b10000000000000000000000000000000100000 )"
b10000000000000000000000000000000100000 6"
b10000000000000000000000000000000100000 3#
b1010100000000000000000000000000010101 %
b1010100000000000000000000000000010101 $"
b1010100000000000000000000000000010101 5"
b1010100000000000000000000000000010101 [#
0X#
b0 +
b0 d
b10100 &
b10100 %"
b10100 2"
b10100 T"
b101 R"
b101 .#
b10000000 ="
b10000000 N"
b10000000 0#
b10000000 ^"
b10000000 x"
b1010100 <"
b1010100 O"
b1010100 U#
b1010100 ]"
b1010100 {"
10
#190000
00
b10011011111111 1
#195000
b10101 h
b11 j
b1100 #
b1100 ""
b1100 3"
b1100 Z#
b11 ;"
b11 S"
b11 V#
b11 V"
b101 s"
b101 ,#
b10010000 m"
b10010000 v"
b1100010 o"
b1100010 y"
1n"
b1 >"
b1 M"
b1 @#
b1 r"
b1000 U"
b1000 +#
b10000 &
b10000 %"
b10000 2"
b10000 T"
b100 R"
b100 .#
b0xxxxxxxxxxxxxxxx +
bx d
10
#200000
00
b10011011111110 1
